[gd_scene load_steps=4 format=2]

[ext_resource path="res://assets/kenney_microroguelike.png" type="Texture" id=1]
[ext_resource path="res://Game/Player.cs" type="Script" id=2]

[sub_resource type="RectangleShape2D" id=1]
extents = Vector2( 3.95, 3.95 )

[node name="Player" type="KinematicBody2D"]
collision_layer = 2
script = ExtResource( 2 )

[node name="Sprite" type="Sprite" parent="."]
position = Vector2( 4, 4 )
texture = ExtResource( 1 )
region_enabled = true
region_rect = Rect2( 40, 0, 8, 8 )

[node name="CollisionShape2D" type="CollisionShape2D" parent="."]
position = Vector2( 4, 4 )
shape = SubResource( 1 )

[node name="Camera2D" type="Camera2D" parent="."]
current = true
zoom = Vector2( 0.25, 0.25 )
