[gd_scene load_steps=3 format=2]

[ext_resource path="res://UI/PCG/GraphBase.tscn" type="PackedScene" id=1]
[ext_resource path="res://UI/PCG/GrammarScreen.cs" type="Script" id=2]

[node name="GrammarScreen" instance=ExtResource( 1 )]
script = ExtResource( 2 )

[node name="VBoxContainer" parent="CanvasLayer/HUD" index="0"]
margin_left = -129.0
margin_bottom = 80.0

[node name="TransformButton" type="Button" parent="CanvasLayer/HUD/VBoxContainer" index="0"]
margin_right = 129.0
margin_bottom = 20.0
text = "Transform"

[node name="PlotterButton" type="Button" parent="CanvasLayer/HUD/VBoxContainer" index="1"]
margin_top = 30.0
margin_right = 129.0
margin_bottom = 50.0
text = "Switch to plotter..."

[node name="ResetButton" type="Button" parent="CanvasLayer/HUD/VBoxContainer" index="2"]
margin_top = 60.0
margin_right = 129.0
margin_bottom = 80.0
text = "Reset"
[connection signal="pressed" from="CanvasLayer/HUD/VBoxContainer/TransformButton" to="." method="_on_TransformButton_pressed"]
[connection signal="pressed" from="CanvasLayer/HUD/VBoxContainer/PlotterButton" to="." method="_on_PlotterButton_pressed"]
[connection signal="pressed" from="CanvasLayer/HUD/VBoxContainer/ResetButton" to="." method="_on_ResetButton_pressed"]
